Chapter 6 Interactive component | NYC jobs
…
            NYC jobs

Chapter 6 Interactive component

## # A tibble: 87 x 2
##    word           freq
##    <chr>         <int>
##  1 experience      640
##  2 ability         403
##  3 design          358
##  4 knowledge       306
##  5 construction    262
##  6 strong          256
##  7 management      241
##  8 communication   231
##  9 project         204
## 10 excellent       200
## # ... with 77 more rows
…
